Untitled
…
## Warning: There are new levels in a factor: NA

## Warning: There are new levels in a factor: NA

## Warning: There are new levels in a factor: Wall

## Warning: There are new levels in a factor: NA

## Warning: There are new levels in a factor: NA

## Warning: There are new levels in a factor: NA

## Warning: There are new levels in a factor: NA

## # A tibble: 367 x 226
##    MSSubClass LotFrontage LotArea OverallQual OverallCond YearBuilt YearRemodAdd
##         <dbl>       <dbl>   <dbl>       <dbl>       <dbl>     <dbl>        <dbl>
##  1      0.521     -0.0387  0.422       0.666       -0.481     0.991        0.831
##  2      0.722     -0.417   0.0842      0.666       -0.481    -1.85        -0.731
##  3      0.273     -0.866  -0.812       0.666       -0.481    -1.32        -1.71 
##  4     -1.14       0.0531  0.413      -0.777       -0.481    -0.200       -0.975
##  5      0.521      0.712   0.544       2.03        -0.481     1.12         1.03 
##  6     -1.14      NA       0.719      -0.777        0.419    -0.299       -1.12 
##  7     -1.14      NA       0.361      -0.0442      -0.481    -0.365       -1.22 
##  8     -1.14      -0.132   0.834      -0.777       -0.481     1.09         0.929
##  9     -1.14       0.0531 -0.391      -0.777        0.419    -0.431       -0.975
## 10      0.126     -0.564  -0.420       0.666        1.23     -1.36        -1.71 
## # ... with 357 more rows, and 219 more variables: MasVnrArea <dbl>,
## #   BsmtFinSF1 <dbl>, BsmtFinSF2 <dbl>, BsmtUnfSF <dbl>, TotalBsmtSF <dbl>,
## #   X1stFlrSF <dbl>, X2ndFlrSF <dbl>, LowQualFinSF <dbl>, GrLivArea <dbl>,
## #   BsmtFullBath <dbl>, BsmtHalfBath <dbl>, FullBath <dbl>, HalfBath <dbl>,
## #   BedroomAbvGr <dbl>, KitchenAbvGr <dbl>, TotRmsAbvGrd <dbl>,
## #   Fireplaces <dbl>, GarageYrBlt <dbl>, GarageCars <dbl>, GarageArea <dbl>,
## #   WoodDeckSF <dbl>, OpenPorchSF <dbl>, EnclosedPorch <dbl>, ...
…
## # A tibble: 2 x 4
##   .metric .estimator .estimate .config             
##   <chr>   <chr>          <dbl> <chr>               
## 1 rmse    standard   37543.    Preprocessor1_Model1
## 2 rsq     standard       0.805 Preprocessor1_Model1

Get test prediction

# Obtain test set predictions data frame
homes_results <- homes_fit %>% 
                 collect_predictions()
# View results
homes_results

## # A tibble: 367 x 5
##    id                 .pred  .row SalePrice .config             
##    <chr>              <dbl> <int>     <int> <chr>               
##  1 train/test split 202708.     3    223500 Preprocessor1_Model1
##  2 train/test split 194145.     4    140000 Preprocessor1_Model1
##  3 train/test split 150809.     9    129900 Preprocessor1_Model1
##  4 train/test split 135917.    11    129500 Preprocessor1_Model1
##  5 train/test split 406303.    12    345000 Preprocessor1_Model1
##  6 train/test split     NA     13    144000 Preprocessor1_Model1
##  7 train/test split     NA     15    157000 Preprocessor1_Model1
##  8 train/test split 162770.    19    159000 Preprocessor1_Model1
##  9 train/test split 130958.    20    139000 Preprocessor1_Model1
## 10 train/test split 118416.    22    139400 Preprocessor1_Model1
## # ... with 357 more rows
…
## Warning: There are new levels in a factor: NA

## Warning: There are new levels in a factor: NA

## Warning: There are new levels in a factor: NA

## Warning: There are new levels in a factor: NA

## Warning: There are new levels in a factor: NA

# View results
homes_training_baked

## # A tibble: 1,093 x 226
##    MSSubClass LotFrontage LotArea OverallQual OverallCond YearBuilt YearRemodAdd
##         <dbl>       <dbl>   <dbl>       <dbl>       <dbl>     <dbl>        <dbl>
##  1      1.85      -0.918   -0.428     -0.777        0.419   -1.06         -1.71 
##  2      1.03       0.144    0.336     -1.54        -0.481   -0.133        -0.877
##  3      1.37      -1.24    -1.54      -0.777        1.23     0.164        -0.438
##  4     -1.14      -0.0387  -0.296     -0.777        1.23    -0.597         1.08 
##  5      1.03      -0.178   -0.838     -1.54        -0.481   -0.530        -1.46 
##  6     -1.14      -0.132   -0.343     -0.777        1.23    -0.167        -0.926
##  7      0.273     -0.815   -0.774     -0.0442       0.419   -1.22         -1.71 
##  8      1.03       1.72    -0.160     -0.777       -0.481   -0.266        -1.07 
##  9     -1.14      -0.417   -0.489     -0.777        1.23     0.0319       -0.633
## 10      0.809     -0.417   -0.489     -0.777        1.23    -1.69          0.538
## # ... with 1,083 more rows, and 219 more variables: MasVnrArea <dbl>,
## #   BsmtFinSF1 <dbl>, BsmtFinSF2 <dbl>, BsmtUnfSF <dbl>, TotalBsmtSF <dbl>,
## #   X1stFlrSF <dbl>, X2ndFlrSF <dbl>, LowQualFinSF <dbl>, GrLivArea <dbl>,
## #   BsmtFullBath <dbl>, BsmtHalfBath <dbl>, FullBath <dbl>, HalfBath <dbl>,
## #   BedroomAbvGr <dbl>, KitchenAbvGr <dbl>, TotRmsAbvGrd <dbl>,
## #   Fireplaces <dbl>, GarageYrBlt <dbl>, GarageCars <dbl>, GarageArea <dbl>,
## #   WoodDeckSF <dbl>, OpenPorchSF <dbl>, EnclosedPorch <dbl>, ...
…
homes_lm_fit <- lm_model %>% 
                fit(SalePrice ~ ., data = homes_training_baked)

homes_fit %>% collect_metrics()

## # A tibble: 2 x 4
##   .metric .estimator .estimate .config             
##   <chr>   <chr>          <dbl> <chr>               
## 1 rmse    standard   37543.    Preprocessor1_Model1
## 2 rsq     standard       0.805 Preprocessor1_Model1

tidy(homes_lm_fit)

## # A tibble: 226 x 5
##    term         estimate std.error statistic    p.value
##    <chr>           <dbl>     <dbl>     <dbl>      <dbl>
##  1 (Intercept)  3387372.  2482790.     1.36  0.173     
##  2 MSSubClass      3594.     4043.     0.889 0.374     
##  3 LotFrontage     1717.     1810.     0.948 0.343     
##  4 LotArea         5857.     2390.     2.45  0.0145    
##  5 OverallQual     9901.     2319.     4.27  0.0000228 
##  6 OverallCond     7786.     1628.     4.78  0.00000219
##  7 YearBuilt       8046.     4087.     1.97  0.0494    
##  8 YearRemodAdd    1359.     1826.     0.744 0.457     
##  9 MasVnrArea      2204.     7043.     0.313 0.754     
## 10 BsmtFinSF1       822.     4558.     0.180 0.857     
## # ... with 216 more rows
…
## Warning: There are new levels in a factor: NA

## Warning: There are new levels in a factor: NA

## Warning: There are new levels in a factor: Wall

## Warning: There are new levels in a factor: NA

## Warning: There are new levels in a factor: NA

## Warning: There are new levels in a factor: NA

## Warning: There are new levels in a factor: NA

## # A tibble: 367 x 226
##    MSSubClass LotFrontage LotArea OverallQual OverallCond YearBuilt YearRemodAdd
##         <dbl>       <dbl>   <dbl>       <dbl>       <dbl>     <dbl>        <dbl>
##  1      0.521     -0.0387  0.422       0.666       -0.481     0.991        0.831
##  2      0.722     -0.417   0.0842      0.666       -0.481    -1.85        -0.731
##  3      0.273     -0.866  -0.812       0.666       -0.481    -1.32        -1.71 
##  4     -1.14       0.0531  0.413      -0.777       -0.481    -0.200       -0.975
##  5      0.521      0.712   0.544       2.03        -0.481     1.12         1.03 
##  6     -1.14      NA       0.719      -0.777        0.419    -0.299       -1.12 
##  7     -1.14      NA       0.361      -0.0442      -0.481    -0.365       -1.22 
##  8     -1.14      -0.132   0.834      -0.777       -0.481     1.09         0.929
##  9     -1.14       0.0531 -0.391      -0.777        0.419    -0.431       -0.975
## 10      0.126     -0.564  -0.420       0.666        1.23     -1.36        -1.71 
## # ... with 357 more rows, and 219 more variables: MasVnrArea <dbl>,
## #   BsmtFinSF1 <dbl>, BsmtFinSF2 <dbl>, BsmtUnfSF <dbl>, TotalBsmtSF <dbl>,
## #   X1stFlrSF <dbl>, X2ndFlrSF <dbl>, LowQualFinSF <dbl>, GrLivArea <dbl>,
## #   BsmtFullBath <dbl>, BsmtHalfBath <dbl>, FullBath <dbl>, HalfBath <dbl>,
## #   BedroomAbvGr <dbl>, KitchenAbvGr <dbl>, TotRmsAbvGrd <dbl>,
## #   Fireplaces <dbl>, GarageYrBlt <dbl>, GarageCars <dbl>, GarageArea <dbl>,
## #   WoodDeckSF <dbl>, OpenPorchSF <dbl>, EnclosedPorch <dbl>, ...
…
## # A tibble: 2 x 4
##   .metric .estimator .estimate .config             
##   <chr>   <chr>          <dbl> <chr>               
## 1 rmse    standard       0.141 Preprocessor1_Model1
## 2 rsq     standard       0.874 Preprocessor1_Model1

Get test prediction

# Obtain test set predictions data frame
homes_results <- homes_fit %>% 
                 collect_predictions()
# View results
homes_results

## # A tibble: 367 x 5
##    id               .pred  .row SalePrice .config             
##    <chr>            <dbl> <int>     <dbl> <chr>               
##  1 train/test split  12.3     3      12.3 Preprocessor1_Model1
##  2 train/test split  12.1     4      11.8 Preprocessor1_Model1
##  3 train/test split  11.6     9      11.8 Preprocessor1_Model1
##  4 train/test split  11.8    11      11.8 Preprocessor1_Model1
##  5 train/test split  12.9    12      12.8 Preprocessor1_Model1
##  6 train/test split  NA      13      11.9 Preprocessor1_Model1
##  7 train/test split  NA      15      12.0 Preprocessor1_Model1
##  8 train/test split  12.0    19      12.0 Preprocessor1_Model1
##  9 train/test split  11.7    20      11.8 Preprocessor1_Model1
## 10 train/test split  11.8    22      11.8 Preprocessor1_Model1
## # ... with 357 more rows
…
## Warning: There are new levels in a factor: NA

## Warning: There are new levels in a factor: NA

## Warning: There are new levels in a factor: NA

## Warning: There are new levels in a factor: NA

## Warning: There are new levels in a factor: NA

# View results
homes_training_baked

## # A tibble: 1,093 x 226
##    MSSubClass LotFrontage LotArea OverallQual OverallCond YearBuilt YearRemodAdd
##         <dbl>       <dbl>   <dbl>       <dbl>       <dbl>     <dbl>        <dbl>
##  1      1.85      -0.918   -0.428     -0.777        0.419   -1.06         -1.71 
##  2      1.03       0.144    0.336     -1.54        -0.481   -0.133        -0.877
##  3      1.37      -1.24    -1.54      -0.777        1.23     0.164        -0.438
##  4     -1.14      -0.0387  -0.296     -0.777        1.23    -0.597         1.08 
##  5      1.03      -0.178   -0.838     -1.54        -0.481   -0.530        -1.46 
##  6     -1.14      -0.132   -0.343     -0.777        1.23    -0.167        -0.926
##  7      0.273     -0.815   -0.774     -0.0442       0.419   -1.22         -1.71 
##  8      1.03       1.72    -0.160     -0.777       -0.481   -0.266        -1.07 
##  9     -1.14      -0.417   -0.489     -0.777        1.23     0.0319       -0.633
## 10      0.809     -0.417   -0.489     -0.777        1.23    -1.69          0.538
## # ... with 1,083 more rows, and 219 more variables: MasVnrArea <dbl>,
## #   BsmtFinSF1 <dbl>, BsmtFinSF2 <dbl>, BsmtUnfSF <dbl>, TotalBsmtSF <dbl>,
## #   X1stFlrSF <dbl>, X2ndFlrSF <dbl>, LowQualFinSF <dbl>, GrLivArea <dbl>,
## #   BsmtFullBath <dbl>, BsmtHalfBath <dbl>, FullBath <dbl>, HalfBath <dbl>,
## #   BedroomAbvGr <dbl>, KitchenAbvGr <dbl>, TotRmsAbvGrd <dbl>,
## #   Fireplaces <dbl>, GarageYrBlt <dbl>, GarageCars <dbl>, GarageArea <dbl>,
## #   WoodDeckSF <dbl>, OpenPorchSF <dbl>, EnclosedPorch <dbl>, ...
…
homes_lm_fit <- lm_model %>% 
                fit(SalePrice ~ ., data = homes_training_baked)

homes_fit %>% collect_metrics()

## # A tibble: 2 x 4
##   .metric .estimator .estimate .config             
##   <chr>   <chr>          <dbl> <chr>               
## 1 rmse    standard       0.141 Preprocessor1_Model1
## 2 rsq     standard       0.874 Preprocessor1_Model1

tidy(homes_lm_fit)

## # A tibble: 226 x 5
##    term         estimate std.error statistic  p.value
##    <chr>           <dbl>     <dbl>     <dbl>    <dbl>
##  1 (Intercept)  25.3       9.65       2.62   8.89e- 3
##  2 MSSubClass    0.00418   0.0157     0.266  7.90e- 1
##  3 LotFrontage   0.0135    0.00704    1.92   5.56e- 2
##  4 LotArea       0.0348    0.00929    3.75   1.96e- 4
##  5 OverallQual   0.0544    0.00902    6.04   2.75e- 9
##  6 OverallCond   0.0431    0.00633    6.82   2.30e-11
##  7 YearBuilt     0.0342    0.0159     2.15   3.17e- 2
##  8 YearRemodAdd  0.0150    0.00710    2.11   3.52e- 2
##  9 MasVnrArea    0.00274   0.0274     0.0999 9.20e- 1
## 10 BsmtFinSF1    0.0149    0.0177     0.842  4.00e- 1
## # ... with 216 more rows
…
homes_recipe %>% 
  prep() %>% 
  bake(new_data = homes_test)

## Warning: There are new levels in a factor: NA

## Warning: There are new levels in a factor: NA

## Warning: There are new levels in a factor: RRNn, RRAn

## Warning: There are new levels in a factor: NA

## Warning: There are new levels in a factor: NA

## # A tibble: 367 x 80
##    GrLivArea TotalBsmtSF LotArea YearBuilt GarageCars SalePrice Exterior2nd_Asp~
##        <dbl>       <dbl>   <dbl>     <dbl>      <dbl>     <dbl>            <dbl>
##  1     0.687    -0.297    0.422      0.991      0.274      12.3                0
##  2     0.567    -0.703    0.0842    -1.85       1.74       11.8                0
##  3     0.666    -0.220   -0.812     -1.32       0.274      11.8                0
##  4    -0.953    -0.00891  0.413     -0.200     -1.04       11.8                0
##  5     1.49      0.308    0.544      1.12       1.74       12.8                0
##  6    -1.35     -0.317    0.719     -0.299     -1.04       11.9                0
##  7    -0.390     0.489    0.361     -0.365     -1.04       12.0                0
##  8    -0.746     0.166    0.834      1.09       0.274      12.0                0
##  9    -0.189    -0.0351  -0.391     -0.431     -1.04       11.8                0
## 10    -0.762    -1.01    -0.420     -1.36      -1.04       11.8                0
## # ... with 357 more rows, and 73 more variables: Exterior2nd_Brk.Cmn <dbl>,
## #   Exterior2nd_BrkFace <dbl>, Exterior2nd_CBlock <dbl>,
## #   Exterior2nd_CmentBd <dbl>, Exterior2nd_HdBoard <dbl>,
## #   Exterior2nd_ImStucc <dbl>, Exterior2nd_MetalSd <dbl>,
## #   Exterior2nd_Other <dbl>, Exterior2nd_Plywood <dbl>,
## #   Exterior2nd_Stone <dbl>, Exterior2nd_Stucco <dbl>,
## #   Exterior2nd_VinylSd <dbl>, Exterior2nd_Wd.Sdng <dbl>, ...
…
## # A tibble: 2 x 4
##   .metric .estimator .estimate .config             
##   <chr>   <chr>          <dbl> <chr>               
## 1 rmse    standard       0.177 Preprocessor1_Model1
## 2 rsq     standard       0.789 Preprocessor1_Model1

Get test prediction

# Obtain test set predictions data frame
homes_results <- homes_fit %>% 
                 collect_predictions()
# View results
homes_results

## # A tibble: 367 x 5
##    id               .pred  .row SalePrice .config             
##    <chr>            <dbl> <int>     <dbl> <chr>               
##  1 train/test split  12.3     3      12.3 Preprocessor1_Model1
##  2 train/test split  12.2     4      11.8 Preprocessor1_Model1
##  3 train/test split  11.8     9      11.8 Preprocessor1_Model1
##  4 train/test split  11.8    11      11.8 Preprocessor1_Model1
##  5 train/test split  12.7    12      12.8 Preprocessor1_Model1
##  6 train/test split  11.7    13      11.9 Preprocessor1_Model1
##  7 train/test split  11.9    15      12.0 Preprocessor1_Model1
##  8 train/test split  11.9    19      12.0 Preprocessor1_Model1
##  9 train/test split  11.8    20      11.8 Preprocessor1_Model1
## 10 train/test split  11.6    22      11.8 Preprocessor1_Model1
## # ... with 357 more rows
…
## Warning: There are new levels in a factor: NA

## Warning: There are new levels in a factor: NA

## Warning: There are new levels in a factor: NA

## Warning: There are new levels in a factor: NA

# View results
homes_training_baked

## # A tibble: 1,093 x 80
##    GrLivArea TotalBsmtSF LotArea YearBuilt GarageCars SalePrice Exterior2nd_Asp~
##        <dbl>       <dbl>   <dbl>     <dbl>      <dbl>     <dbl>            <dbl>
##  1    -0.848    -0.126    -0.428   -1.06       -1.04       11.7                0
##  2    -0.288    -3.02      0.336   -0.133       0.274      11.4                0
##  3    -0.896    -0.00891  -1.54     0.164       0.274      11.8                0
##  4    -0.904     0.0314   -0.296   -0.597      -1.04       11.6                0
##  5    -0.645    -3.02     -0.838   -0.530      -2.16       11.3                0
##  6    -1.21     -0.213    -0.343   -0.167      -1.04       11.8                0
##  7    -0.582    -0.553    -0.774   -1.22        0.274      11.6                0
##  8    -1.68     -0.553    -0.160   -0.266       0.274      11.6                0
##  9    -1.82     -0.643    -0.489    0.0319     -1.04       11.7                0
## 10    -0.754    -1.29     -0.489   -1.69       -1.04       11.5                0
## # ... with 1,083 more rows, and 73 more variables: Exterior2nd_Brk.Cmn <dbl>,
## #   Exterior2nd_BrkFace <dbl>, Exterior2nd_CBlock <dbl>,
## #   Exterior2nd_CmentBd <dbl>, Exterior2nd_HdBoard <dbl>,
## #   Exterior2nd_ImStucc <dbl>, Exterior2nd_MetalSd <dbl>,
## #   Exterior2nd_Other <dbl>, Exterior2nd_Plywood <dbl>,
## #   Exterior2nd_Stone <dbl>, Exterior2nd_Stucco <dbl>,
## #   Exterior2nd_VinylSd <dbl>, Exterior2nd_Wd.Sdng <dbl>, ...
…
homes_lm_fit <- lm_model %>% 
                fit(SalePrice ~ ., data = homes_training_baked)

homes_fit %>% collect_metrics()

## # A tibble: 2 x 4
##   .metric .estimator .estimate .config             
##   <chr>   <chr>          <dbl> <chr>               
## 1 rmse    standard       0.177 Preprocessor1_Model1
## 2 rsq     standard       0.789 Preprocessor1_Model1

tidy(homes_lm_fit)

## # A tibble: 80 x 5
##    term                estimate std.error statistic   p.value
##    <chr>                  <dbl>     <dbl>     <dbl>     <dbl>
##  1 (Intercept)          11.0      0.218      50.6   9.47e-270
##  2 GrLivArea             0.168    0.00630    26.7   3.45e-117
##  3 TotalBsmtSF           0.0551   0.00725     7.60  7.08e- 14
##  4 LotArea               0.0419   0.00710     5.91  4.93e-  9
##  5 YearBuilt             0.0750   0.0122      6.15  1.14e-  9
##  6 GarageCars            0.0412   0.00723     5.70  1.58e-  8
##  7 Exterior2nd_AsphShn   0.105    0.160       0.656 5.12e-  1
##  8 Exterior2nd_Brk.Cmn  -0.173    0.0936     -1.85  6.48e-  2
##  9 Exterior2nd_BrkFace   0.129    0.0645      1.99  4.64e-  2
## 10 Exterior2nd_CBlock   -0.0244   0.149      -0.164 8.70e-  1
## # ... with 70 more rows
…
